{
  "props": {
    "configuration": {
      "provider": "string"
    },
    "pluginId": "string",
    "attributes": "object",
    "titlePrefix": "JSX.Element",
    "titleAttributes": "object",
    "label": "JSX.Element",
    "titleSuffix": "JSX.Element",
    "content": {
      "fieldContentLink": "JSX.Element",
      "fieldSummary": "JSX.Element",
      "fieldTitle": "JSX.Element",
      "fieldMediaImage": {
        "0": {
          "media": {
            "fieldMediaImage": {
              "entity": {
                "uri": {
                  "value": "string"
                }
              }
            }
          }
        }
      }
    },
    "elements": {
      "content": {
        "blockContent": {
          "bundle": "string"
        }
      }
    }
  }
}
