{
  "props": {
    "pluginId": "string",
    "label": "string",
    "configuration": "shape",
    "derivativePluginId": "string",
    "content": "JSX.Element",
    "attributes": "object",
    "titleAttributes": "object",
    "titlePrefix": "JSX.Element",
    "titleSuffix": "JSX.Element"
  }
}
