{
  "wrap": ["<template hyperscriptify>", "</template>"],
  "props": {
    "page": {
      "preHeader": "JSX.Element",
      "header": "JSX.Element",
      "highlighted": "JSX.Element",
      "tabs": "JSX.Element",
      "bannerTop": "JSX.Element",
      "breadcrumbs": "JSX.Element",
      "pageTitle": "JSX.Element",
      "content": "JSX.Element",
      "sidebar": "JSX.Element",
      "contentBottom": "JSX.Element",
      "footer": "JSX.Element",
      "bottom": "JSX.Element"
    },
    "isFront": "boolean",
    "node": {
      "id": "integer"
    }
  }
}
